<svg width="520" height="371" viewBox="0 0 520 371" fill="none" xmlns="http://www.w3.org/2000/svg">
<path d="M259 91.2705V91.2705C254.707 84.6665 249.175 78.9575 242.709 74.4595L241 73.2705" stroke="#25383F" stroke-width="2"/>
<path d="M269 92.2705V92.2705C271.385 88.6016 274.458 85.4299 278.05 82.9311L279 82.2705" stroke="#25383F" stroke-width="2"/>
<path d="M163.242 211.365V221.617L173.1 212.548L175.183 210.581C178.51 207.438 181.391 203.855 183.746 199.93L184.535 197.17L163.242 211.365Z" fill="#25383F"/>
<path fill-rule="evenodd" clip-rule="evenodd" d="M262.339 304.87C314.561 303.691 371.752 301.7 417.18 305.42C463.695 309.23 489.076 316.812 497.669 324.142C505.565 330.878 476.366 336.971 461.811 343.496C446.905 350.179 448.028 357.868 411.546 362.751C372.736 367.946 316.53 369.823 262.339 370.197C205.979 370.586 146.945 369.526 101.799 364.888C56.9899 360.285 36.68 352.727 20.7125 345.372C5.11327 338.187 -12.0949 330.207 11.8721 323.468C35.0572 316.949 94.068 315.118 140.604 311.663C180.091 308.731 218.022 305.87 262.339 304.87Z" fill="#D7DBDC"/>
<g filter="url(#filter0_d)">
<path d="M125.053 319.317C127.839 321.112 129.151 324.498 128.303 327.701L125.225 339.316C124.205 343.167 120.863 345.954 116.891 346.265C109.268 346.863 104.17 338.578 108.141 332.043L114.381 321.774C116.614 318.099 121.438 316.989 125.053 319.317Z" fill="white"/>
<path d="M124.511 320.158C126.933 321.718 128.074 324.661 127.336 327.445L124.259 339.06C123.347 342.501 120.361 344.99 116.813 345.268C110.002 345.802 105.448 338.4 108.996 332.562L115.235 322.293C117.176 319.099 121.369 318.134 124.511 320.158Z" stroke="#25383F" stroke-width="2"/>
</g>
<g filter="url(#filter1_d)">
<path d="M131.618 326.191C134.877 325.588 138.154 327.153 139.732 330.068L145.453 340.634C147.35 344.137 146.828 348.457 144.149 351.406C139.009 357.067 129.618 354.529 128.029 347.049L125.533 335.296C124.639 331.09 127.39 326.974 131.618 326.191Z" fill="white"/>
<path d="M131.8 327.175C134.633 326.65 137.481 328.011 138.853 330.544L144.574 341.11C146.269 344.24 145.802 348.099 143.409 350.734C138.816 355.792 130.427 353.524 129.007 346.841L126.511 335.088C125.734 331.432 128.125 327.855 131.8 327.175Z" stroke="#25383F" stroke-width="2"/>
</g>
<path d="M89.136 232.652L93.4503 233.446V225.955L83.5927 227.138L74.918 220.434C77.1112 226.77 82.5422 231.437 89.136 232.652Z" fill="#25383F"/>
<path d="M104.096 320.316C98.4247 301.776 93.45 245.149 93.0557 218.636L134.852 214.125L130.515 329.746L119.868 328.08L113.165 328.868C110.011 328.868 108.039 333.206 104.096 320.316Z" fill="#25383F"/>
<path d="M149.487 319.171C157.914 298.703 162.434 231.71 163.641 200.772L121.997 194.41L126.572 332.811L138.795 331.628C141.949 331.711 141.061 339.639 149.487 319.171Z" fill="#C2D6DF" stroke="#25383F" stroke-width="2"/>
<path d="M115.926 53.6429L110.8 68.6266L122.629 74.9355L134.852 68.6266L130.515 53.6429H115.926Z" fill="white" stroke="#25383F" stroke-width="2"/>
<path d="M166.792 74.9354L133.67 64.6834L133.233 65.9689C129.629 76.5818 114.237 75.3421 112.377 64.2892L104.514 66.7885C76.9339 75.5542 53.8471 94.7075 40.1397 120.195C38.1052 123.978 39.9096 128.685 43.9516 130.138L65.5259 137.897C70.618 139.729 76.2456 137.197 78.2535 132.172L78.8492 130.681L75.0883 218.215C74.8598 223.533 79.4182 227.807 84.7104 227.237L126.751 222.709C146.868 220.542 166.004 212.892 182.07 200.593C183.419 199.56 184.115 197.886 183.895 196.2L175.534 132.194C175.417 131.301 175.912 130.439 176.743 130.091L194.029 122.838C195.444 122.244 196.365 120.859 196.365 119.325C196.365 118.387 196.449 117.451 196.617 116.528L197.297 112.804C200.232 96.7095 190.267 81.0725 174.44 76.9348L166.792 74.9354Z" fill="#DB073D" stroke="#25383F" stroke-width="2"/>
<path d="M196.365 86.3704C185.718 85.5818 194 88.2705 196.365 97.7705C197.119 101.422 197.392 105.155 197.178 108.877L196.882 114.031L214.705 114.995L254.02 114.031C257.444 113.508 261.835 134.346 270.108 110.437C272.799 102.659 204 86.9359 196.365 86.3704Z" fill="white" stroke="#25383F" stroke-width="2"/>
<path d="M137.796 44.4448C137.796 49.544 136.062 53.5207 133.385 56.2196C130.703 58.9233 127.021 60.3999 123.024 60.3999C119.033 60.3999 115.561 58.9291 113.081 56.2452C110.598 53.5574 109.04 49.5764 109.04 44.4448C109.04 34.1014 115.678 26.1238 123.418 26.1238C131.158 26.1238 137.796 34.1014 137.796 44.4448Z" fill="white" stroke="#25383F" stroke-width="2"/>
<path d="M106.463 26.3145C102.399 28.0076 102.381 34.9692 108.929 37.526L113.299 32.0751C115.72 29.0548 119.979 28.2447 123.339 30.1653C124.965 31.094 126.679 31.8574 128.457 32.4439L135.247 34.6845L137.609 34.6845C139.681 34.6845 141.72 34.1645 143.54 33.1721L144.803 32.4833C144.912 32.4238 144.892 32.2616 144.772 32.2293L142.99 31.7496C140.618 31.1116 140.238 27.9076 142.393 26.7317C143.725 26.0054 144.106 24.0277 142.962 23.0308C142.136 22.3099 141.177 21.8121 139.979 22.0985C137.613 22.6637 136.906 21.6858 138.007 19.6038C139.108 17.5218 132.881 12.6352 128.544 16.0547C127.755 16.6763 127.503 17.0479 125.784 16.4489C124.064 15.8499 118.686 15.2661 117.109 18.0262C116.511 19.0717 114.181 18.8227 111.983 19.6038C104.633 22.215 111.542 24.1982 106.463 26.3145Z" fill="#25383F"/>
<ellipse cx="119.869" cy="41.4195" rx="1.57722" ry="0.788612" transform="rotate(-90 119.869 41.4195)" fill="#25383F"/>
<ellipse rx="1.47232" ry="0.857759" transform="matrix(0.401719 -0.915763 0.796212 0.605018 130.515 41.9181)" fill="#25383F"/>
<path d="M117.954 50.5765C118.538 51.4605 120.343 53.3231 122.896 53.7014" stroke="#25383F" stroke-width="2"/>
<path d="M116.714 37.4764C117.595 36.8164 119.619 35.5983 120.668 36.0056" stroke="#25383F" stroke-width="2"/>
<path d="M132.484 37.8702C131.635 37.1688 129.672 35.855 128.605 36.2115" stroke="#25383F" stroke-width="2"/>
<path d="M121.217 47.8215L123.524 43.8451C124.037 42.9611 125.389 43.325 125.389 44.3469V49.3458C125.389 50.069 124.645 50.5531 123.984 50.2601L121.677 49.2376C121.132 48.9964 120.918 48.3363 121.217 47.8215Z" fill="#E7BEBE"/>
<path d="M37.8372 205.27L38.1694 205.593C39.8117 207.19 42.2808 207.583 44.3379 206.575C46.4758 205.526 47.6795 203.206 47.3052 200.854L46.6313 196.621C46.3357 194.763 46.5115 192.861 47.1428 191.089L65.7441 138.881C65.9286 138.364 65.6605 137.794 65.1439 137.606L45.5877 130.495C44.9784 130.273 44.3226 130.681 44.2519 131.325L37.4796 193.101L36.1222 199.684C35.703 201.716 36.3497 203.822 37.8372 205.27Z" fill="white" stroke="#25383F" stroke-width="2"/>
<path d="M59.1937 191.827L47.4481 200.856L46.7837 193.662L55.159 186.759C56.5926 185.578 58.7242 185.841 59.8267 187.337C60.8735 188.756 60.5921 190.752 59.1937 191.827Z" fill="#C2D6DF" stroke="#25383F" stroke-width="2"/>
<mask id="path-25-inside-1" fill="white">
<path fill-rule="evenodd" clip-rule="evenodd" d="M69.2732 177.109C66.5712 175.136 63.0076 174.411 59.559 175.456C53.7276 177.223 50.4331 183.383 52.2005 189.215C53.968 195.046 60.1281 198.341 65.9596 196.573C71.4441 194.911 74.6846 189.363 73.5803 183.858L67.1887 187.83L61.8023 186.465L62.9629 181.031L69.2732 177.109Z"/>
</mask>
<path fill-rule="evenodd" clip-rule="evenodd" d="M69.2732 177.109C66.5712 175.136 63.0076 174.411 59.559 175.456C53.7276 177.223 50.4331 183.383 52.2005 189.215C53.968 195.046 60.1281 198.341 65.9596 196.573C71.4441 194.911 74.6846 189.363 73.5803 183.858L67.1887 187.83L61.8023 186.465L62.9629 181.031L69.2732 177.109Z" fill="#C2D6DF"/>
<path d="M69.2732 177.109L70.3289 178.807L72.8473 177.242L70.4527 175.494L69.2732 177.109ZM73.5803 183.858L75.5412 183.464L74.9741 180.636L72.5246 182.159L73.5803 183.858ZM67.1887 187.83L66.6974 189.769L67.522 189.978L68.2444 189.529L67.1887 187.83ZM61.8023 186.465L59.8464 186.047L59.4442 187.931L61.311 188.404L61.8023 186.465ZM62.9629 181.031L61.9071 179.332L61.1846 179.781L61.007 180.613L62.9629 181.031ZM60.1391 177.37C62.9614 176.514 65.8769 177.105 68.0937 178.724L70.4527 175.494C67.2654 173.166 63.0539 172.307 58.9789 173.542L60.1391 177.37ZM54.1145 188.635C52.6675 183.86 55.3648 178.817 60.1391 177.37L58.9789 173.542C52.0904 175.63 48.1986 182.906 50.2865 189.795L54.1145 188.635ZM65.3794 194.659C60.6051 196.106 55.5616 193.409 54.1145 188.635L50.2865 189.795C52.3744 196.684 59.6512 200.575 66.5397 198.487L65.3794 194.659ZM71.6193 184.251C72.523 188.756 69.8687 193.299 65.3794 194.659L66.5397 198.487C73.0195 196.523 76.8461 189.97 75.5412 183.464L71.6193 184.251ZM72.5246 182.159L66.133 186.131L68.2444 189.529L74.636 185.556L72.5246 182.159ZM67.68 185.891L62.2937 184.526L61.311 188.404L66.6974 189.769L67.68 185.891ZM63.7582 186.883L64.9188 181.449L61.007 180.613L59.8464 186.047L63.7582 186.883ZM64.0186 182.729L70.3289 178.807L68.2175 175.41L61.9071 179.332L64.0186 182.729Z" fill="#25383F" mask="url(#path-25-inside-1)"/>
<path d="M90.6904 212.548C95.4221 212.548 117.109 212.548 125.389 201.902" stroke="#25383F" stroke-width="2"/>
<path d="M123.812 81.6387C121.661 81.6387 111.803 81.6387 108.039 73.7526" stroke="#25383F" stroke-width="2"/>
<path d="M24.616 209.148L35.6902 201.189L36.0427 202.481C36.3938 203.769 37.1639 204.902 38.2313 205.703L38.9625 206.251L28.489 214.344C27.0624 215.447 25.0104 215.173 23.9228 213.735C22.8244 212.283 23.1375 210.211 24.616 209.148Z" fill="#C2D6DF" stroke="#25383F" stroke-width="2"/>
<rect x="226.199" width="91.0617" height="47.6334" rx="23.8167" transform="rotate(8.33869 226.199 0)" fill="white"/>
<path d="M244.721 21.1572L243.438 29.4586L241.528 29.1635L242.57 22.4275L238.822 21.8483L237.781 28.5843L235.872 28.2892L237.155 19.9877L244.721 21.1572ZM248.327 30.3114C247.655 30.2076 247.072 29.9757 246.577 29.6159C246.091 29.2494 245.737 28.7939 245.513 28.2494C245.29 27.7049 245.227 27.1164 245.325 26.4839C245.422 25.8514 245.66 25.3093 246.037 24.8577C246.415 24.406 246.89 24.0828 247.462 23.8879C248.044 23.6864 248.671 23.6376 249.343 23.7415C250.015 23.8453 250.594 24.0805 251.079 24.447C251.566 24.8056 251.921 25.2571 252.145 25.8017C252.368 26.3462 252.431 26.9347 252.333 27.5672C252.236 28.1997 251.998 28.7417 251.621 29.1934C251.243 29.645 250.768 29.9722 250.194 30.175C249.621 30.3698 248.999 30.4153 248.327 30.3114ZM248.562 28.7935C249.036 28.8668 249.448 28.7685 249.797 28.4987C250.156 28.2222 250.377 27.8152 250.46 27.2776C250.543 26.74 250.455 26.2892 250.195 25.9253C249.945 25.5547 249.582 25.3328 249.108 25.2594C248.634 25.1861 248.217 25.2877 247.859 25.5642C247.502 25.8328 247.281 26.2359 247.198 26.7735C247.115 27.3111 247.203 27.7658 247.461 28.1376C247.721 28.5015 248.087 28.7201 248.562 28.7935ZM259.839 25.4609L258.853 31.8411L257.003 31.5552L257.369 29.1833C256.79 29.3691 256.176 29.4118 255.528 29.3116C254.666 29.1784 254.044 28.8839 253.661 28.4281C253.287 27.9656 253.164 27.3232 253.291 26.5009L253.601 24.4967L255.451 24.7827L255.159 26.6683C255.1 27.0557 255.155 27.3516 255.326 27.5561C255.504 27.7618 255.783 27.894 256.163 27.9527C256.645 28.0272 257.116 27.9947 257.574 27.8551L257.989 25.1749L259.839 25.4609ZM261.615 25.7354L263.453 26.0196L262.867 29.8145L266.56 26.4998L268.256 26.7619L267.27 33.1421L265.432 32.858L266.018 29.0631L262.337 32.3796L260.629 32.1157L261.615 25.7354ZM270.035 27.0368L271.873 27.3209L271.488 29.8113L274.263 30.2402L274.648 27.7498L276.498 28.0358L275.512 34.416L273.662 34.13L274.03 31.7464L271.255 31.3174L270.887 33.7011L269.049 33.417L270.035 27.0368ZM278.269 28.3095L280.107 28.5936L279.521 32.3885L283.214 29.0738L284.91 29.3359L283.924 35.7162L282.086 35.4321L282.672 31.6371L278.991 34.9537L277.283 34.6897L278.269 28.3095ZM291.928 36.9534L292.519 33.1347L290.114 36.0416L289.332 35.9206L287.967 32.419L287.374 36.2495L285.702 35.9911L286.688 29.6108L288.622 29.9096L290.091 33.9131L292.832 30.5603L294.563 30.8279L293.601 37.2118L291.928 36.9534ZM296.383 29.1421L298.589 29.4831L297.383 34.8459L295.913 34.6186L296.383 29.1421ZM296.188 37.7089C295.864 37.6588 295.607 37.5139 295.418 37.2741C295.237 37.0276 295.17 36.7542 295.216 36.4537C295.263 36.1533 295.408 35.9208 295.652 35.7561C295.897 35.5835 296.186 35.5229 296.518 35.5742C296.85 35.6256 297.107 35.7705 297.289 36.0091C297.472 36.2397 297.54 36.5052 297.493 36.8057C297.447 37.1061 297.297 37.346 297.042 37.5252C296.797 37.6978 296.512 37.759 296.188 37.7089Z" fill="black"/>
<path d="M237.441 32.663L239.279 34.7461C258.335 35.0079 277.244 38.1114 295.383 43.9544L298.889 45.0839L296.051 43.9678C277.377 36.6242 257.507 32.7917 237.441 32.663Z" fill="#DB073D"/>
<path d="M380 202.077V206.271L374.444 202.561L369.927 199.904C368.669 199.164 367.653 198.076 367 196.771L368 196.271L380 202.077Z" fill="#25383F"/>
<g filter="url(#filter2_d)">
<path d="M410 319.317C407.214 321.112 405.901 324.498 406.75 327.701L409.827 339.316C410.848 343.167 414.19 345.954 418.162 346.265C425.785 346.863 430.882 338.578 426.911 332.043L420.672 321.774C418.439 318.099 413.615 316.989 410 319.317Z" fill="#25383F"/>
<path d="M410.541 320.158C408.12 321.718 406.979 324.661 407.717 327.445L410.794 339.06C411.706 342.501 414.691 344.99 418.24 345.268C425.051 345.802 429.604 338.4 426.057 332.562L419.817 322.293C417.877 319.099 413.684 318.134 410.541 320.158Z" stroke="#25383F" stroke-width="2"/>
</g>
<g filter="url(#filter3_d)">
<path d="M403.434 326.191C400.175 325.588 396.899 327.153 395.321 330.068L389.599 340.634C387.702 344.137 388.225 348.457 390.904 351.406C396.044 357.067 405.435 354.529 407.024 347.049L409.52 335.296C410.413 331.09 407.663 326.974 403.434 326.191Z" fill="#25383F"/>
<path d="M403.252 327.175C400.42 326.65 397.572 328.011 396.2 330.544L390.479 341.11C388.784 344.24 389.251 348.099 391.644 350.734C396.236 355.792 404.626 353.524 406.045 346.841L408.542 335.088C409.318 331.432 406.927 327.855 403.252 327.175Z" stroke="#25383F" stroke-width="2"/>
</g>
<path d="M437.971 207.576L432 208.283V200.791L439.5 196.771L450.532 195.271C449.63 201.751 444.469 206.807 437.971 207.576Z" fill="#25383F"/>
<path d="M430.906 316.955C436.605 292.741 441.604 218.787 442 184.161L400 178.271L404.358 329.27L415.057 327.095L421.792 328.125C424.962 328.125 426.943 333.789 430.906 316.955Z" fill="#DB073D" stroke="#25383F" stroke-width="2"/>
<path d="M385.519 317.379C377.024 294.309 372.282 218.875 370.973 184.042L412.599 177.018L408.481 332.811L396.253 331.439C393.1 331.522 394.014 340.449 385.519 317.379Z" fill="#DB073D" stroke="#25383F" stroke-width="2"/>
<path d="M419.128 53.6429L424.254 68.6266L412.425 74.9355L400.201 68.6266L404.539 53.6429H419.128Z" fill="white" stroke="#25383F" stroke-width="2"/>
<path d="M384.582 69.8839L401.384 64.6834L401.82 65.9689C405.425 76.5818 420.817 75.3421 422.676 64.2892L430.465 66.7648C458.093 75.5457 481.22 94.7322 494.951 120.264C496.974 124.025 495.209 128.707 491.207 130.197L472.679 137.097C468.53 138.642 463.871 136.978 461.64 133.153L458.5 127.771L450.881 196.341C450.687 198.091 448.909 199.202 447.251 198.608L404.893 183.459C391.675 178.731 376.975 184.233 370.109 196.478C369.523 197.521 367.946 197.211 367.799 196.024L359.837 131.644C359.762 131.041 359.396 130.513 358.858 130.232L347.311 124.206C345.774 123.404 344.32 122.452 342.97 121.364C340.22 119.148 338.419 115.967 337.935 112.469L335.986 98.3978C334.605 88.4316 341.452 79.1929 351.389 77.6149C362.624 75.8309 373.716 73.2473 384.582 69.8839Z" fill="#6A9CB2" stroke="#25383F" stroke-width="2"/>
<path d="M338.172 86.5817C338.483 86.5817 337.5 87.9472 337.5 98.2705L337.5 102.771L338.172 114.031L320.35 114.995L281.034 114.031C277.611 113.508 273.22 134.346 264.947 110.437C262.256 102.659 330.516 86.5817 338.172 86.5817Z" fill="white" stroke="#25383F" stroke-width="2"/>
<path d="M397.258 44.4448C397.258 49.544 398.992 53.5207 401.669 56.2196C404.351 58.9233 408.033 60.3999 412.03 60.3999C416.02 60.3999 419.492 58.9291 421.972 56.2452C424.456 53.5574 426.014 49.5764 426.014 44.4448C426.014 34.1014 419.376 26.1238 411.636 26.1238C403.896 26.1238 397.258 34.1014 397.258 44.4448Z" fill="white" stroke="#25383F" stroke-width="2"/>
<ellipse rx="1.57722" ry="0.788612" transform="matrix(0.204654 -0.978834 -0.978834 -0.204654 417.884 42.9951)" fill="#25383F"/>
<ellipse rx="1.47232" ry="0.857759" transform="matrix(-0.205801 -0.978594 -0.903179 0.429264 407.361 41.3046)" fill="#25383F"/>
<path d="M417.766 50.1663C416.215 51.4947 414.024 54.6663 408.02 52.6391" stroke="#25383F" stroke-width="2"/>
<path d="M422.673 40.335C421.502 39.469 418.759 37.773 417.161 37.9174" stroke="#25383F" stroke-width="2"/>
<path d="M405.001 36.818C405.989 36.3334 411.046 36.6752 412.001 37.2705" stroke="#25383F" stroke-width="2"/>
<path d="M413.171 48.4939L413.846 43.9464C413.996 42.9355 412.712 42.3772 412.075 43.1764L408.959 47.0854C408.508 47.6509 408.788 48.4931 409.488 48.6761L411.929 49.3147C412.505 49.4653 413.084 49.0826 413.171 48.4939Z" fill="#E7BEBE"/>
<path d="M497.216 205.27L496.884 205.593C495.242 207.19 492.773 207.583 490.716 206.575C488.578 205.526 487.374 203.206 487.749 200.854L488.422 196.621C488.718 194.763 488.542 192.861 487.911 191.089L469.31 138.881C469.125 138.364 469.393 137.794 469.91 137.606L489.466 130.495C490.075 130.273 490.731 130.681 490.802 131.325L497.574 193.101L498.932 199.684C499.351 201.716 498.704 203.822 497.216 205.27Z" fill="white" stroke="#25383F" stroke-width="2"/>
<path d="M482.868 196.826L487.149 200.241L488.416 194.075L486.909 192.459C485.636 191.094 483.435 191.221 482.327 192.724C481.376 194.015 481.615 195.826 482.868 196.826Z" fill="#C2D6DF" stroke="#25383F" stroke-width="2"/>
<path d="M443.699 177.917C438.968 177.917 417.281 177.917 409 167.271" stroke="#25383F" stroke-width="2"/>
<path d="M411.241 81.6387C413.392 81.6387 423.25 81.6387 427.013 73.7526" stroke="#25383F" stroke-width="2"/>
<path d="M482.925 193.168L469.876 183.271" stroke="#25383F" stroke-width="2"/>
<path d="M506.018 205.858L499.25 201.092L498.592 202.798C498.243 203.704 497.68 204.511 496.951 205.15L495.876 206.093L502.195 211.017C503.608 212.119 505.65 211.851 506.731 210.422C507.826 208.973 507.504 206.904 506.018 205.858Z" fill="#C2D6DF" stroke="#25383F" stroke-width="2"/>
<path d="M395.705 25.9036C391.82 31.6832 396.205 39.4035 398.205 40.4035C400.538 37.5702 406.305 31.4035 410.705 29.4035C415.105 27.4035 422 33.6038 425 35.2705C425.333 35.7705 430.833 37.0928 431 30.7705C431.5 11.7705 411.5 20.2127 410.705 18.7704C408.5 14.7704 399.5 17.2704 402 22.7705C399.5 22.7705 397.153 23.7497 395.705 25.9036Z" fill="#D7DBDC" stroke="#25383F" stroke-width="2"/>
<path d="M378.209 109.75L377 72.2705L360.5 76L359 130.771L363.816 176.703C364.933 187.364 367.519 197.818 371.5 207.771L376.909 201.009C395.896 177.276 433.868 185.725 441 215.271C448.855 204.47 453.656 191.754 454.9 178.457L459.5 129.271C452.454 119.341 449.615 107.031 451.602 95.0188L454.5 77.5L439.5 70.2705L436.183 108.827C435.793 113.361 432.08 116.891 427.532 117.05L387.52 118.454C382.542 118.629 378.37 114.728 378.209 109.75Z" fill="#DB073D" stroke="#25383F" stroke-width="2"/>
<path d="M396.5 197.291L374 213.771L373 209.271L371 203.291C385 191.624 413.8 168.491 417 169.291C421 170.291 435 183.791 435.5 185.291C435.9 186.491 441.667 204.104 443.5 210.271L439.5 215.771L413 190.791L417 189.771L409.5 190.791L396.5 197.291Z" fill="#DB073D"/>
<path d="M393 133.27L425 133.272" stroke="#25383F" stroke-width="2"/>
<defs>
<filter id="filter0_d" x="106.759" y="318.098" width="21.7992" height="32.1975" filterUnits="userSpaceOnUse" color-interpolation-filters="sRGB">
<feFlood flood-opacity="0" result="BackgroundImageFix"/>
<feColorMatrix in="SourceAlpha" type="matrix" values="0 0 0 0 0 0 0 0 0 0 0 0 0 0 0 0 0 0 127 0" result="hardAlpha"/>
<feOffset dy="4"/>
<feComposite in2="hardAlpha" operator="out"/>
<feColorMatrix type="matrix" values="0 0 0 0 0.145098 0 0 0 0 0.219608 0 0 0 0 0.247059 0 0 0 1 0"/>
<feBlend mode="normal" in2="BackgroundImageFix" result="effect1_dropShadow"/>
<feBlend mode="normal" in="SourceGraphic" in2="effect1_dropShadow" result="shape"/>
</filter>
<filter id="filter1_d" x="125.364" y="326.063" width="21.221" height="32.4247" filterUnits="userSpaceOnUse" color-interpolation-filters="sRGB">
<feFlood flood-opacity="0" result="BackgroundImageFix"/>
<feColorMatrix in="SourceAlpha" type="matrix" values="0 0 0 0 0 0 0 0 0 0 0 0 0 0 0 0 0 0 127 0" result="hardAlpha"/>
<feOffset dy="4"/>
<feComposite in2="hardAlpha" operator="out"/>
<feColorMatrix type="matrix" values="0 0 0 0 0.145098 0 0 0 0 0.219608 0 0 0 0 0.247059 0 0 0 1 0"/>
<feBlend mode="normal" in2="BackgroundImageFix" result="effect1_dropShadow"/>
<feBlend mode="normal" in="SourceGraphic" in2="effect1_dropShadow" result="shape"/>
</filter>
<filter id="filter2_d" x="406.495" y="318.098" width="21.7992" height="32.1975" filterUnits="userSpaceOnUse" color-interpolation-filters="sRGB">
<feFlood flood-opacity="0" result="BackgroundImageFix"/>
<feColorMatrix in="SourceAlpha" type="matrix" values="0 0 0 0 0 0 0 0 0 0 0 0 0 0 0 0 0 0 127 0" result="hardAlpha"/>
<feOffset dy="4"/>
<feComposite in2="hardAlpha" operator="out"/>
<feColorMatrix type="matrix" values="0 0 0 0 0.145098 0 0 0 0 0.219608 0 0 0 0 0.247059 0 0 0 1 0"/>
<feBlend mode="normal" in2="BackgroundImageFix" result="effect1_dropShadow"/>
<feBlend mode="normal" in="SourceGraphic" in2="effect1_dropShadow" result="shape"/>
</filter>
<filter id="filter3_d" x="388.468" y="326.063" width="21.221" height="32.4247" filterUnits="userSpaceOnUse" color-interpolation-filters="sRGB">
<feFlood flood-opacity="0" result="BackgroundImageFix"/>
<feColorMatrix in="SourceAlpha" type="matrix" values="0 0 0 0 0 0 0 0 0 0 0 0 0 0 0 0 0 0 127 0" result="hardAlpha"/>
<feOffset dy="4"/>
<feComposite in2="hardAlpha" operator="out"/>
<feColorMatrix type="matrix" values="0 0 0 0 0.145098 0 0 0 0 0.219608 0 0 0 0 0.247059 0 0 0 1 0"/>
<feBlend mode="normal" in2="BackgroundImageFix" result="effect1_dropShadow"/>
<feBlend mode="normal" in="SourceGraphic" in2="effect1_dropShadow" result="shape"/>
</filter>
</defs>
</svg>
