<svg width="33" height="33" viewBox="0 0 33 33" fill="none" xmlns="http://www.w3.org/2000/svg">
<circle r="16.5" transform="matrix(-1 0 0 1 16.5 16.5)" fill="#DFDFDF"/>
<path d="M18.5121 10.4634L12.8779 16.0975L18.5121 21.7317" stroke="#25383F" stroke-width="2"/>
</svg>
