<svg width="23" height="23" viewBox="0 0 23 23" fill="none" xmlns="http://www.w3.org/2000/svg">
<circle cx="11.5" cy="11.5" r="10.5" fill="white" stroke="#25383F" stroke-width="2"/>
<path d="M11 6V12H16" stroke="#25383F" stroke-width="2"/>
</svg>
