<svg width="381" height="340" viewBox="0 0 381 340" fill="none" xmlns="http://www.w3.org/2000/svg">
<path fill-rule="evenodd" clip-rule="evenodd" d="M175.268 8.65406C213.27 11.8758 243.442 32.9342 276.052 49.9885C310.862 68.1938 359.755 68.4989 371.651 111.361C384.658 158.225 352.615 181.047 341.914 216.209C330.903 252.387 344.039 294.104 309.269 316.335C274.765 338.395 228.106 332.311 185.468 331.372C145.58 330.493 99.6178 335.239 71.2355 311.09C43.4063 287.412 57.5529 246.737 47.4876 213.972C38.6259 185.126 14.7014 160.96 15.9268 131.047C17.3978 95.1402 23.8558 55.1476 54.9734 31.2455C86.5571 6.98545 133.526 5.11522 175.268 8.65406Z" fill="#111111" fill-opacity="0.12"/>
<g clip-path="url(#clip0)">
<path d="M140.857 292.443V298.089L133.378 293.094L127.296 289.517C125.602 288.521 124.233 287.056 123.355 285.298L124.701 284.625L140.857 292.443Z" fill="#25383F"/>
<path d="M35.2977 259.846L35.539 260.422C36.7315 263.267 39.5834 265.055 42.6637 264.889C45.865 264.717 48.5794 262.477 49.3551 259.366L50.7515 253.766C51.3643 251.309 52.5847 249.045 54.3006 247.183L105.097 192.053C105.469 191.648 105.445 191.019 105.044 190.644L83.9893 170.99C83.5154 170.548 82.7522 170.666 82.4349 171.232L41.2685 244.582L36.1171 252.022C34.5264 254.319 34.2175 257.269 35.2977 259.846Z" fill="white" stroke="#25383F" stroke-width="2"/>
<path d="M218.906 299.846L210.867 300.798V290.711L220.965 285.298L235.818 283.279C234.603 292.004 227.654 298.811 218.906 299.846Z" fill="#25383F"/>
<path d="M209.395 447.111C217.068 414.511 223.799 314.941 224.332 268.321L167.784 260.39L173.652 463.693L188.056 460.763L197.125 462.15C201.393 462.15 204.06 469.777 209.395 447.111Z" fill="#DB073D" stroke="#25383F" stroke-width="2"/>
<path d="M148.29 447.683C136.853 416.622 130.468 315.06 128.706 268.161L184.75 258.704L179.206 468.46L162.742 466.613C158.496 466.724 159.727 478.744 148.29 447.683Z" fill="#DB073D" stroke="#25383F" stroke-width="2"/>
<path d="M193.538 92.595L200.439 112.769L184.513 121.263L168.056 112.769L173.895 92.595H193.538Z" fill="white" stroke="#25383F" stroke-width="2"/>
<path d="M111.233 132.226L169.649 107.46L170.237 109.19C175.09 123.479 195.813 121.81 198.317 106.929L208.804 110.262C246.001 122.084 277.138 147.917 295.626 182.291C298.349 187.356 295.974 193.659 290.585 195.666L265.64 204.955C260.053 207.036 253.78 204.795 250.776 199.645L246.549 192.398L236.291 284.72C236.029 287.077 233.636 288.571 231.403 287.773L174.374 267.376C156.577 261.01 136.785 268.418 127.541 284.904C126.753 286.309 124.629 285.892 124.431 284.293L113.68 197.359C113.599 196.707 113.203 196.136 112.62 195.832L93.7355 185.976L78.5279 179.606C75.2615 178.238 72.5174 175.862 70.6954 172.826L70.2702 172.117C68.601 169.335 68.8161 165.813 70.8115 163.255C81.4283 149.643 95.3406 138.964 111.233 132.226Z" fill="#6A9CB2" stroke="#25383F" stroke-width="2"/>
<path d="M163.747 80.2108C163.747 87.158 166.112 92.603 169.787 96.3081C173.467 100.018 178.515 102.039 183.983 102.039C189.444 102.039 194.213 100.024 197.623 96.3336C201.036 92.6396 203.156 87.1905 203.156 80.2108C203.156 66.1714 194.133 55.1975 183.452 55.1975C172.77 55.1975 163.747 66.1714 163.747 80.2108Z" fill="white" stroke="#25383F" stroke-width="2"/>
<ellipse rx="2.12353" ry="1.06177" transform="matrix(0.204654 -0.978834 -0.978834 -0.204654 191.862 78.2589)" fill="#25383F"/>
<ellipse rx="1.98229" ry="1.15486" transform="matrix(-0.205801 -0.978594 -0.903179 0.429264 177.697 75.9829)" fill="#25383F"/>
<path d="M191.705 87.9141C189.617 89.7026 186.667 93.9727 178.584 91.2435" stroke="#25383F" stroke-width="2"/>
<path d="M198.311 74.6775C196.734 73.5115 193.041 71.2281 190.889 71.4226" stroke="#25383F" stroke-width="2"/>
<path d="M174.517 69.9423C175.848 69.2899 182.656 69.75 183.941 70.5515" stroke="#25383F" stroke-width="2"/>
<path d="M185.46 86.0444L186.614 78.2665C186.764 77.2556 185.48 76.6973 184.843 77.4965L179.513 84.1822C179.063 84.7478 179.343 85.59 180.042 85.773L184.218 86.8651C184.794 87.0157 185.373 86.6331 185.46 86.0444Z" fill="#E7BEBE"/>
<path d="M298.675 296.741L298.228 297.176C296.017 299.327 292.692 299.857 289.923 298.498C287.044 297.087 285.424 293.962 285.928 290.796L286.835 285.096C287.233 282.596 286.996 280.035 286.146 277.649L260.987 207.034C260.802 206.516 261.07 205.946 261.587 205.758L288.655 195.915C289.264 195.694 289.92 196.102 289.99 196.746L299.157 280.358L300.984 289.221C301.549 291.957 300.678 294.793 298.675 296.741Z" fill="white" stroke="#25383F" stroke-width="2"/>
<path d="M226.621 259.914C220.25 259.914 191.052 259.914 179.903 245.58" stroke="#25383F" stroke-width="2"/>
<path d="M182.922 130.288C185.818 130.288 199.09 130.288 204.157 119.67" stroke="#25383F" stroke-width="2"/>
<path d="M49 259L67.5 270" stroke="#25383F" stroke-width="7"/>
<path d="M29 246L37.5 251" stroke="#25383F" stroke-width="7"/>
<path d="M162.004 55.2474C156.773 63.029 162.677 73.4234 165.37 74.7698C168.511 70.955 176.275 62.6524 182.199 59.9597C188.124 57.2669 197.407 65.6148 201.446 67.8587C201.895 68.5319 209.3 70.3123 209.524 61.8001C210.197 36.219 183.27 47.5853 182.199 45.6435C179.231 40.2579 167.113 43.6239 170.479 51.0291C167.113 51.0291 163.953 52.3474 162.004 55.2474Z" fill="#D7DBDC" stroke="#25383F" stroke-width="2"/>
<path d="M138.41 171.409L136 121.5L126.25 125.75L113.5 131.5L112.584 196.438L119.067 258.28C120.572 272.633 124.054 286.709 129.414 300.108L136.696 291.005C162.259 259.051 213.385 270.427 222.987 310.206C233.562 295.665 240.027 278.544 241.701 260.641L247.895 194.418C238.408 181.05 234.586 164.475 237.261 148.302L241.163 124.716L219 114L216.024 169.366C215.773 174.02 212.011 177.714 207.352 177.877L147.715 179.97C142.794 180.142 138.647 176.328 138.41 171.409Z" fill="#DB073D" stroke="#25383F" stroke-width="2"/>
<path d="M163.073 285.999L132.779 308.187L131.433 302.128L128.74 294.077C147.589 278.369 186.365 247.223 190.673 248.3C196.059 249.647 214.908 267.823 215.581 269.842C216.12 271.458 223.884 295.172 226.352 303.474L220.967 310.879L185.288 277.247L190.673 275.874L180.576 277.247L163.073 285.999Z" fill="#DB073D"/>
<path d="M158.361 199.802L201.445 199.805" stroke="#25383F" stroke-width="2"/>
</g>
<circle cx="17" cy="239" r="16" fill="#C2D6DF" stroke="#25383F" stroke-width="2"/>
<defs>
<clipPath id="clip0">
<rect width="316" height="293" fill="white" transform="translate(12 37)"/>
</clipPath>
</defs>
</svg>
