<svg width="403" height="401" viewBox="0 0 403 401" fill="none" xmlns="http://www.w3.org/2000/svg">
<g clip-path="url(#clip0)">
<g clip-path="url(#clip1)">
<path fill-rule="evenodd" clip-rule="evenodd" d="M244.454 53.9991C277.764 72.572 296.599 104.18 319.303 133.142C343.539 164.058 387.976 184.454 381.182 228.414C373.754 276.478 335.158 284.095 310.937 311.739C286.015 340.182 280.823 383.609 239.985 389.564C199.46 395.473 159.437 370.729 120.963 352.329C84.9694 335.115 41.1253 320.529 25.1934 286.841C9.57191 253.809 39.2018 222.558 43.5097 188.554C47.3025 158.616 35.4403 126.747 48.8654 99.9876C64.9807 67.8663 87.3224 34.0733 125.519 25.0923C164.287 15.9767 207.865 33.5984 244.454 53.9991Z" fill="#111111" fill-opacity="0.12"/>
</g>
<path d="M176.171 157.101L181.271 189.584L169.5 203.261L157.336 189.584L161.653 157.101H176.171Z" fill="white" stroke="#25383F" stroke-width="2"/>
<path d="M136.234 136.156C136.234 159.023 150.294 172.204 166.457 172.204C174.573 172.204 181.706 168.898 186.826 162.781C191.957 156.653 195.119 147.635 195.119 136.156C195.119 124.684 191.765 114.34 186.392 106.888C181.017 99.4355 173.681 94.9382 165.677 94.9382C157.673 94.9382 150.336 99.4355 144.962 106.888C139.588 114.34 136.234 124.684 136.234 136.156Z" fill="white" stroke="#25383F" stroke-width="2"/>
<ellipse cx="154.745" cy="133.035" rx="3.4193" ry="1.70965" transform="rotate(-90 154.745 133.035)" fill="#25383F"/>
<ellipse rx="3.19188" ry="1.85956" transform="matrix(0.401719 -0.915763 0.796212 0.605018 176.415 133.941)" fill="#25383F"/>
<path d="M148.38 126.419C150.29 124.988 154.678 122.348 156.951 123.231" stroke="#25383F" stroke-width="2"/>
<path d="M182.195 127.914C180.355 126.393 176.099 123.545 173.786 124.318" stroke="#25383F" stroke-width="2"/>
<path d="M169.139 144.483L164.929 133.517C164.559 132.552 163.147 132.714 163.005 133.738L161.231 146.545C161.13 147.269 161.816 147.853 162.515 147.638L168.5 145.797C169.053 145.627 169.347 145.023 169.139 144.483Z" fill="#E7BEBE"/>
<path d="M155.273 152.868V152.868C158.149 159.69 167.684 160.044 171.057 153.454L171.356 152.868" stroke="#25383F" stroke-width="2"/>
<path d="M71.5994 226.855L78.6022 216.66C96.5526 190.526 127.205 176.109 158.782 178.947C160.314 191.341 178.271 191.333 179.861 178.947C200.588 179.31 220.671 186.207 237.248 198.655L260.885 216.404C266.378 220.529 267.278 228.422 262.855 233.679L240.905 259.762C239.433 261.512 237.094 262.272 234.873 261.723L211.747 256L207.719 382.151C207.611 385.538 204.237 387.838 201.045 386.702L178 378.5L147.5 365L116.883 349.961C108.413 345.801 103.539 336.702 104.77 327.346L113.734 259.202C113.923 257.759 111.842 257.318 111.431 258.714L111.05 260.004C107.941 270.548 93.6749 272.151 88.3019 262.561L70.7966 231.314C70.0297 229.946 70.2663 228.234 71.3759 227.124C71.4585 227.042 71.5333 226.952 71.5994 226.855Z" fill="#6A9CB2" stroke="#25383F" stroke-width="2"/>
<path d="M155.523 77.281C113.018 80.153 113.274 122.246 135.5 142.761C140.344 138.202 137.064 123.552 145 116.5C155.523 107.149 166.735 103.652 183.094 112.65C202.048 123.075 179.073 126.104 189.412 142.761L185.766 151.048C184.183 154.645 185.17 158.855 188.186 161.375L181.945 174.927C184.224 178.916 155.523 246.151 188.186 257.638C209.712 265.209 212.033 239.493 216.408 236.96C238.235 224.324 209.859 211.78 222.152 191.584C230.193 178.373 235.363 137.017 214.11 107.149C199.151 86.1252 188.432 75.0573 155.523 77.281Z" fill="#25383F"/>
<rect x="-1" y="1" width="66" height="93" rx="3" transform="matrix(-1 0 0 1 198 233)" fill="white" stroke="black" stroke-width="2"/>
<path d="M188 253H145" stroke="#25383F" stroke-width="3"/>
<path d="M188 265H145" stroke="#25383F" stroke-width="3"/>
<path d="M159.388 290.399L153.475 277.816C152.541 275.829 150.068 275.124 148.227 276.319C147.108 277.046 145.681 277.098 144.512 276.456L100.031 252.017C100.01 252.006 99.9908 251.993 99.9724 251.978L83 238.5L73.0208 230.423C72.7236 230.182 72.2931 230.204 72.0216 230.473C63.0665 239.349 65.2565 254.358 76.3744 260.305L94.5 270L119.264 279.748C130.312 284.097 140.39 290.589 148.918 298.849C154.68 303.247 162.471 296.959 159.388 290.399Z" fill="white" stroke="#25383F" stroke-width="2"/>
<path d="M110.999 258.973C112.599 255.699 117.202 248.66 122.809 246.704" stroke="#25383F" stroke-width="2"/>
<circle cx="180" cy="309" r="10" stroke="#25383F" stroke-width="2"/>
<circle cx="180" cy="309" r="6.5" stroke="#25383F"/>
<path d="M145 311.75C149.636 304.591 149.044 312.043 149.714 311.307C150.244 310.725 150.914 309.952 150.892 309.243C150.883 308.959 150.784 309.071 150.763 309.286C150.656 310.373 150.649 311.456 150.492 312.544C150.332 313.647 150.05 314.674 149.429 315.703C149.372 315.796 148.764 317.052 148.527 316.998C148.168 316.918 148.44 315.915 148.463 315.789C148.677 314.606 149.636 312.246 149.636 312.246C149.636 312.246 151.572 310.071 152.645 309.019C153.21 308.464 154.412 307.541 154.31 306.8C154.25 306.362 153.539 306.625 153.358 306.849C153.059 307.219 152.97 307.655 152.98 308.071C153.005 309.07 153.334 310.076 153.459 311.071C153.632 312.455 153.755 313.849 153.707 315.238C153.698 315.514 153.674 315.79 153.647 316.065C153.623 316.322 153.615 315.551 153.629 315.293C153.759 313.008 154.929 310.754 155.975 308.601C158.048 304.337 160.58 300.177 163 296" stroke="#25383F" stroke-linecap="round"/>
<path d="M178.609 290.563L184.501 278.023C185.446 276.013 187.947 275.3 189.809 276.509C190.909 277.223 192.306 277.295 193.472 276.697L230.512 257.729C237.48 254.161 244.01 249.793 249.968 244.715L251.857 243.105C254.273 241.046 256.372 238.643 258.088 235.974L263.905 226.926C264.219 226.437 264.893 226.34 265.333 226.72C278.866 238.417 275.208 260.293 258.604 266.949L214.328 284.701C205.308 288.317 196.815 293.131 189.079 299.013C183.317 303.411 175.526 297.123 178.609 290.563Z" fill="white" stroke="#25383F" stroke-width="2"/>
</g>
<defs>
<clipPath id="clip0">
<rect width="403" height="401" fill="white"/>
</clipPath>
<clipPath id="clip1">
<rect width="550" height="425.777" fill="white" transform="translate(0 -38.7386)"/>
</clipPath>
</defs>
</svg>
