<svg width="19" height="24" viewBox="0 0 19 24" fill="none" xmlns="http://www.w3.org/2000/svg">
<path d="M18 9.5018C18 10.9043 17.4873 12.4145 16.6416 13.9357C15.8 15.4496 14.6646 16.9101 13.5071 18.1948C12.3523 19.4765 11.1943 20.5627 10.3236 21.3291C10.0048 21.6098 9.72538 21.8468 9.5 22.0339C9.27462 21.8468 8.99524 21.6098 8.67637 21.3291C7.8057 20.5627 6.64769 19.4765 5.49293 18.1948C4.3354 16.9101 3.20001 15.4496 2.3584 13.9357C1.51269 12.4145 1 10.9043 1 9.5018C1 4.54656 4.78635 1 9.5 1C14.1942 1 18 4.80621 18 9.5018Z" fill="white" stroke="#25383F" stroke-width="2"/>
<circle cx="9.50044" cy="9.49996" r="2.45455" fill="white" stroke="#25383F" stroke-width="2"/>
</svg>
